<svg width="8" height="6" viewBox="0 0 8 6" fill="none" xmlns="http://www.w3.org/2000/svg">
<path d="M4.00169 3.77066L1.00878 0.777876C0.926569 0.69547 0.81665 0.650137 0.699447 0.650137C0.582179 0.650137 0.472325 0.69547 0.389984 0.777876L0.12787 1.04012C0.0453984 1.1224 3.53573e-08 1.23238 3.43509e-08 1.34958C3.33445e-08 1.46679 0.0453984 1.57664 0.12787 1.65898L3.69119 5.22236C3.77379 5.30503 3.88416 5.3503 4.0015 5.34997C4.11935 5.3503 4.22959 5.3051 4.31226 5.22236L7.87213 1.6623C7.9546 1.57996 8 1.4701 8 1.35284C8 1.23563 7.9546 1.12578 7.87213 1.04337L7.61002 0.781194C7.43941 0.610592 7.16169 0.610592 6.99115 0.781194L4.00169 3.77066Z" fill="white"/>
</svg>
