<svg width="35" height="35" viewBox="0 0 35 35" fill="none" xmlns="http://www.w3.org/2000/svg">
<g clip-path="url(#clip0)">
<path d="M21.1337 12.8239L19.8158 12.8245C18.7826 12.8245 18.5825 13.3155 18.5825 14.0361V15.625H21.0468L21.0459 18.1137H18.5825V24.5H16.0122V18.1137H13.8633V15.625H16.0122V13.7898C16.0122 11.6598 17.3133 10.5 19.2134 10.5L21.1338 10.5031L21.1337 12.8239Z" />
</g>
<circle cx="17.5" cy="17.5" r="17" />
<defs>
<clipPath id="clip0">
<rect width="14" height="14" transform="translate(10.5 10.5)"/>
</clipPath>
</defs>
</svg>
