<svg width="35" height="35" viewBox="0 0 35 35" fill="none" xmlns="http://www.w3.org/2000/svg">
<g clip-path="url(#clip0)">
<path d="M16.8111 20.3612C15.7257 20.248 14.7472 19.9807 13.9093 19.3254C13.8054 19.2439 13.698 19.1653 13.6032 19.0743C13.2365 18.7221 13.1995 18.3187 13.4897 17.903C13.7379 17.5473 14.1546 17.4521 14.5878 17.6564C14.6716 17.696 14.7516 17.7454 14.8281 17.7985C16.3895 18.8713 18.5345 18.901 20.1018 17.8467C20.2571 17.7276 20.4231 17.6306 20.6154 17.581C20.9895 17.485 21.3383 17.6224 21.539 17.9496C21.7683 18.3234 21.7654 18.6882 21.4829 18.9784C21.0494 19.4232 20.5282 19.7451 19.949 19.9697C19.4014 20.182 18.8015 20.2889 18.2078 20.3599C18.2974 20.4574 18.3396 20.5053 18.3957 20.5616C19.2018 21.3716 20.0115 22.1782 20.815 22.9906C21.0887 23.2675 21.1459 23.6107 20.9952 23.9327C20.8304 24.2846 20.4615 24.5161 20.0997 24.4914C19.8706 24.4755 19.6918 24.3614 19.533 24.2015C18.9247 23.5893 18.3049 22.9884 17.7089 22.3647C17.5354 22.1833 17.452 22.2176 17.2989 22.3751C16.6869 23.0052 16.0649 23.6255 15.4392 24.2424C15.1583 24.5194 14.824 24.5692 14.4982 24.411C14.1519 24.2431 13.9315 23.8896 13.9485 23.5343C13.9602 23.294 14.0784 23.1104 14.2434 22.9458C15.0411 22.1492 15.8367 21.3505 16.6326 20.5525C16.6853 20.4995 16.7344 20.4432 16.8111 20.3612Z"/>
<path d="M17.4736 17.5863C15.5374 17.5797 13.9497 15.9746 13.961 14.0353C13.9721 12.0746 15.5608 10.4946 17.5161 10.5C19.4753 10.5053 21.0479 12.1081 21.0381 14.0891C21.0281 16.0244 19.4294 17.593 17.4736 17.5863ZM19.2332 14.04C19.2299 13.0771 18.463 12.3106 17.502 12.3097C16.533 12.3086 15.7592 13.0891 15.7667 14.0608C15.7739 15.0201 16.5473 15.7812 17.511 15.7777C18.4717 15.7743 19.2365 15.0028 19.2332 14.04Z"/>
</g>
<circle cx="17.5" cy="17.5" r="17"/>
<defs>
<clipPath id="clip0">
<rect width="14" height="14" fill="white" transform="translate(10.5 10.5)"/>
</clipPath>
</defs>
</svg>
