<svg width="50" height="50" viewBox="0 0 50 50" fill="none" xmlns="http://www.w3.org/2000/svg">
<g clip-path="url(#clip0)">
<path d="M45.5467 8.63389C38.6673 6.74894 31.7475 3.81388 25.5353 0.146118C25.2053 -0.048706 24.7959 -0.048706 24.466 0.146118C18.0746 3.91926 11.5287 6.69552 4.454 8.63389C3.99697 8.75899 3.68018 9.17442 3.68018 9.64835V20.395C3.68018 31.4617 8.78554 38.7871 13.0685 42.9834C17.6795 47.5015 23.0505 50 25.0006 50C26.9505 50 32.3216 47.5015 36.9326 42.9834C41.2155 38.7872 46.3205 31.4618 46.3205 20.395V9.64825C46.3205 9.17442 46.0037 8.75899 45.5467 8.63389ZM44.217 20.3949C44.217 30.7311 39.4552 37.5666 35.4603 41.4808C30.926 45.9237 26.0781 47.8963 25.0006 47.8963C23.9232 47.8963 19.075 45.9237 14.5406 41.4808C10.5458 37.5665 5.78378 30.7311 5.78378 20.3949V10.4467C12.5492 8.52579 18.8498 5.84503 25.0008 2.27053C30.9983 5.75021 37.6132 8.56427 44.217 10.4463V20.3949Z" fill="#027FD5"/>
<path d="M15.6773 10.3287C15.4644 9.78817 14.8538 9.52264 14.3132 9.73563C12.4343 10.476 10.5058 11.1574 8.58125 11.7611C8.14268 11.8988 7.84424 12.3051 7.84424 12.7646V16.8262C7.84424 17.4071 8.31523 17.878 8.89599 17.878C9.47676 17.878 9.94775 17.4071 9.94775 16.8262V13.5333C11.6742 12.9747 13.3988 12.3568 15.0843 11.6927C15.6248 11.4799 15.8903 10.8692 15.6773 10.3287Z" fill="#027FD5"/>
<path d="M17.6757 10.529C17.8168 10.529 17.9601 10.5006 18.0975 10.4406L18.1168 10.4322C18.649 10.199 18.8886 9.5796 18.6554 9.04767C18.422 8.51554 17.7991 8.27482 17.2675 8.50782L17.2505 8.51515C16.7181 8.74767 16.4777 9.36661 16.7102 9.89884C16.8828 10.294 17.27 10.529 17.6757 10.529Z" fill="#027FD5"/>
<path d="M37.5319 33.9145C37.0458 33.5969 36.3941 33.7335 36.076 34.2197C35.2093 35.5463 34.1925 36.8166 33.0534 37.995C32.1167 38.9639 31.1017 39.8671 30.0365 40.6791C29.5747 41.0312 29.4859 41.6912 29.8379 42.1532C30.045 42.4246 30.3582 42.5673 30.675 42.5673C30.8975 42.5673 31.1216 42.4971 31.312 42.3518C32.461 41.4757 33.5557 40.5018 34.5656 39.4571C35.7972 38.1833 36.8978 36.8083 37.837 35.3703C38.1549 34.884 38.0181 34.2322 37.5319 33.9145Z" fill="#027FD5"/>
<path d="M27.5937 42.3278L27.5333 42.3634C27.0307 42.6545 26.8589 43.2979 27.15 43.8005C27.345 44.1374 27.698 44.3255 28.0612 44.3255C28.2399 44.3255 28.4213 44.2799 28.587 44.1837L28.6567 44.1428C29.1579 43.8492 29.3263 43.205 29.0327 42.7037C28.739 42.2026 28.0947 42.0346 27.5937 42.3278Z" fill="#027FD5"/>
<path d="M17.8308 22.8535C17.185 22.2076 16.3261 21.8521 15.4127 21.8521C14.4992 21.8521 13.6402 22.2077 12.9941 22.8535C11.6608 24.1871 11.6608 26.357 12.9941 27.6905L19.2046 33.9008C19.8505 34.5465 20.7094 34.9021 21.623 34.9021C22.5366 34.9021 23.3955 34.5465 24.0415 33.9006L37.0064 20.9356C38.3396 19.6017 38.3396 17.4321 37.0062 16.099C36.3603 15.4531 35.5014 15.0977 34.5877 15.0977C33.6742 15.0977 32.8153 15.4532 32.1693 16.099L21.6229 26.6454L17.8308 22.8535ZM33.6568 17.5865C33.9053 17.338 34.2361 17.2012 34.5878 17.2012C34.9398 17.2012 35.2702 17.338 35.519 17.5865C36.0322 18.0997 36.0322 18.9351 35.5188 19.4484L22.5541 32.4132C22.3055 32.6618 21.9748 32.7986 21.623 32.7986C21.2712 32.7986 20.9405 32.6618 20.6919 32.4132L14.4815 26.2031C13.9681 25.6897 13.9681 24.8544 14.4813 24.3412C14.7299 24.0927 15.0607 23.9556 15.4126 23.9556C15.7644 23.9556 16.095 24.0925 16.3435 24.341L20.8792 28.8767C21.0765 29.0739 21.3439 29.1847 21.6229 29.1847C21.9019 29.1847 22.1693 29.074 22.3665 28.8767L33.6568 17.5865Z" fill="#027FD5"/>
</g>
<defs>
<clipPath id="clip0">
<rect width="50" height="50" fill="white"/>
</clipPath>
</defs>
</svg>
