<svg width="50" height="50" viewBox="0 0 50 50" fill="none" xmlns="http://www.w3.org/2000/svg">
<g clip-path="url(#clip0)">
<path d="M45.5463 8.63389C38.6669 6.74894 31.7471 3.81388 25.5349 0.146118C25.205 -0.048706 24.7955 -0.048706 24.4656 0.146118C18.0742 3.91926 11.5283 6.69552 4.45362 8.63389C3.99659 8.75899 3.67979 9.17442 3.67979 9.64835V20.395C3.67979 31.4617 8.78516 38.7871 13.0682 42.9834C17.6791 47.5015 23.0502 50 25.0003 50C26.9502 50 32.3212 47.5015 36.9322 42.9834C41.2151 38.7872 46.3201 31.4618 46.3201 20.395V9.64825C46.3201 9.17442 46.0033 8.75899 45.5463 8.63389ZM44.2166 20.3949C44.2166 30.7311 39.4548 37.5666 35.4599 41.4808C30.9256 45.9237 26.0777 47.8963 25.0003 47.8963C23.9228 47.8963 19.0746 45.9237 14.5402 41.4808C10.5454 37.5665 5.7834 30.7311 5.7834 20.3949V10.4467C12.5488 8.52579 18.8494 5.84503 25.0005 2.27053C30.9979 5.75021 37.6128 8.56427 44.2166 10.4463V20.3949Z" fill="#027FD5"/>
<path d="M15.6776 10.3292C15.4647 9.78866 14.8541 9.52313 14.3134 9.73612C12.4345 10.4764 10.506 11.1579 8.58151 11.7616C8.14293 11.8993 7.8445 12.3055 7.8445 12.7651V16.8267C7.8445 17.4076 8.31549 17.8785 8.89625 17.8785C9.47702 17.8785 9.94801 17.4076 9.94801 16.8267V13.5338C11.6745 12.9752 13.3991 12.3573 15.0845 11.6931C15.6251 11.4804 15.8906 10.8697 15.6776 10.3292Z" fill="#027FD5"/>
<path d="M17.6755 10.5285C17.8166 10.5285 17.9599 10.5001 18.0973 10.4401L18.1166 10.4317C18.6487 10.1985 18.8884 9.57911 18.6552 9.04718C18.4218 8.51505 17.7988 8.27433 17.2673 8.50734L17.2503 8.51466C16.7179 8.74718 16.4775 9.36612 16.71 9.89835C16.8825 10.2935 17.2697 10.5285 17.6755 10.5285Z" fill="#027FD5"/>
<path d="M37.5314 33.9143C37.0454 33.5966 36.3936 33.7332 36.0755 34.2195C35.2089 35.546 34.1921 36.8163 33.053 37.9948C32.1163 38.9637 31.1012 39.8668 30.0361 40.6788C29.5743 41.031 29.4854 41.6909 29.8375 42.1529C30.0446 42.4243 30.3578 42.5671 30.6746 42.5671C30.897 42.5671 31.1212 42.4969 31.3116 42.3516C32.4605 41.4755 33.5552 40.5016 34.5652 39.4569C35.7967 38.183 36.8973 36.808 37.8366 35.3701C38.1545 34.8837 38.0176 34.232 37.5314 33.9143Z" fill="#027FD5"/>
<path d="M27.5935 42.3283L27.5332 42.3639C27.0305 42.655 26.8588 43.2983 27.1498 43.801C27.3448 44.1379 27.6978 44.326 28.061 44.326C28.2397 44.326 28.4212 44.2804 28.5869 44.1842L28.6565 44.1433C29.1578 43.8497 29.3261 43.2055 29.0326 42.7042C28.7388 42.2031 28.0945 42.0351 27.5935 42.3283Z" fill="#027FD5"/>
<path d="M17.8309 22.8533C17.1851 22.2074 16.3263 21.8519 15.4128 21.8519C14.4993 21.8519 13.6403 22.2075 12.9942 22.8533C11.6609 24.1868 11.6609 26.3568 12.9942 27.6903L19.2048 33.9006C19.8507 34.5463 20.7096 34.9019 21.6231 34.9019C22.5367 34.9019 23.3956 34.5463 24.0416 33.9004L37.0065 20.9354C38.3397 19.6015 38.3397 17.4319 37.0063 16.0988C36.3604 15.4529 35.5015 15.0974 34.5878 15.0974C33.6743 15.0974 32.8154 15.453 32.1694 16.0988L21.623 26.6451L17.8309 22.8533ZM33.6569 17.5863C33.9054 17.3377 34.2362 17.2009 34.5879 17.2009C34.9399 17.2009 35.2704 17.3377 35.5191 17.5863C36.0323 18.0995 36.0323 18.9348 35.5189 19.4482L22.5542 32.413C22.3056 32.6615 21.9749 32.7984 21.6231 32.7984C21.2714 32.7984 20.9406 32.6615 20.692 32.413L14.4816 26.2029C13.9683 25.6895 13.9683 24.8541 14.4814 24.341C14.7301 24.0924 15.0608 23.9554 15.4127 23.9554C15.7645 23.9554 16.0951 24.0922 16.3436 24.3408L20.8793 28.8765C21.0766 29.0737 21.344 29.1845 21.623 29.1845C21.902 29.1845 22.1694 29.0738 22.3666 28.8765L33.6569 17.5863Z" fill="#027FD5"/>
</g>
<defs>
<clipPath id="clip0">
<rect width="50" height="50" fill="white"/>
</clipPath>
</defs>
</svg>
